%YAML 1.1
%TAG !u! tag:unity3d.com,2011:
--- !u!1 &9077760654643999663
GameObject:
  m_ObjectHideFlags: 0
  m_CorrespondingSourceObject: {fileID: 0}
  m_PrefabInstance: {fileID: 0}
  m_PrefabAsset: {fileID: 0}
  serializedVersion: 6
  m_Component:
  - component: {fileID: 696513876009248871}
  - component: {fileID: 4035935711783863617}
  - component: {fileID: 6402590050515366038}
  - component: {fileID: 3419566308707893010}
  m_Layer: 0
  m_Name: Barrier4
  m_TagString: Obstacle
  m_Icon: {fileID: 0}
  m_NavMeshLayer: 0
  m_StaticEditorFlags: 0
  m_IsActive: 1
--- !u!4 &696513876009248871
Transform:
  m_ObjectHideFlags: 0
  m_CorrespondingSourceObject: {fileID: 0}
  m_PrefabInstance: {fileID: 0}
  m_PrefabAsset: {fileID: 0}
  m_GameObject: {fileID: 9077760654643999663}
  m_LocalRotation: {x: -0, y: -0, z: -0, w: 1}
  m_LocalPosition: {x: 3.8721247, y: 6.0157294, z: 0}
  m_LocalScale: {x: 0.22827, y: 0.22827, z: 0.22827}
  m_Children: []
  m_Father: {fileID: 0}
  m_RootOrder: 0
  m_LocalEulerAnglesHint: {x: 0, y: 0, z: 0}
--- !u!212 &4035935711783863617
SpriteRenderer:
  m_ObjectHideFlags: 0
  m_CorrespondingSourceObject: {fileID: 0}
  m_PrefabInstance: {fileID: 0}
  m_PrefabAsset: {fileID: 0}
  m_GameObject: {fileID: 9077760654643999663}
  m_Enabled: 1
  m_CastShadows: 0
  m_ReceiveShadows: 0
  m_DynamicOccludee: 1
  m_MotionVectors: 1
  m_LightProbeUsage: 1
  m_ReflectionProbeUsage: 1
  m_RenderingLayerMask: 1
  m_RendererPriority: 0
  m_Materials:
  - {fileID: 10754, guid: 0000000000000000f000000000000000, type: 0}
  m_StaticBatchInfo:
    firstSubMesh: 0
    subMeshCount: 0
  m_StaticBatchRoot: {fileID: 0}
  m_ProbeAnchor: {fileID: 0}
  m_LightProbeVolumeOverride: {fileID: 0}
  m_ScaleInLightmap: 1
  m_ReceiveGI: 1
  m_PreserveUVs: 0
  m_IgnoreNormalsForChartDetection: 0
  m_ImportantGI: 0
  m_StitchLightmapSeams: 1
  m_SelectedEditorRenderState: 0
  m_MinimumChartSize: 4
  m_AutoUVMaxDistance: 0.5
  m_AutoUVMaxAngle: 89
  m_LightmapParameters: {fileID: 0}
  m_SortingLayerID: 0
  m_SortingLayer: 0
  m_SortingOrder: 0
  m_Sprite: {fileID: 21300000, guid: 7f9ff706c0e84eb4fbf6bdfbe9764814, type: 3}
  m_Color: {r: 1, g: 1, b: 1, a: 1}
  m_FlipX: 0
  m_FlipY: 0
  m_DrawMode: 0
  m_Size: {x: 32.86, y: 28.993176}
  m_AdaptiveModeThreshold: 0.5
  m_SpriteTileMode: 0
  m_WasSpriteAssigned: 1
  m_MaskInteraction: 0
  m_SpriteSortPoint: 0
--- !u!114 &6402590050515366038
MonoBehaviour:
  m_ObjectHideFlags: 0
  m_CorrespondingSourceObject: {fileID: 0}
  m_PrefabInstance: {fileID: 0}
  m_PrefabAsset: {fileID: 0}
  m_GameObject: {fileID: 9077760654643999663}
  m_Enabled: 1
  m_EditorHideFlags: 0
  m_Script: {fileID: 11500000, guid: bf70ee3429112c74dba39a4529587240, type: 3}
  m_Name: 
  m_EditorClassIdentifier: 
  movementSpeedX: 3
  movementSpeedY: 3
  movementSpeedZ: 3
  targetPositionX: 0
  returnPositionX: 0
  targetPositionY: 0
  returnPositionY: 0
  targetPositionZ: 0
  returnPositionZ: 0
  rotationSpeedX: 70
  rotationSpeedY: 70
  rotationSpeedZ: 70
  horizontalMovementEnabled: 0
  verticalMovementEnabled: 0
  forwardMovementEnabled: 0
  rotationEnabledX: 0
  rotationEnabledY: 0
  rotationEnabledZ: 1
--- !u!60 &3419566308707893010
PolygonCollider2D:
  m_ObjectHideFlags: 0
  m_CorrespondingSourceObject: {fileID: 0}
  m_PrefabInstance: {fileID: 0}
  m_PrefabAsset: {fileID: 0}
  m_GameObject: {fileID: 9077760654643999663}
  m_Enabled: 1
  m_Density: 1
  m_Material: {fileID: 0}
  m_IsTrigger: 0
  m_UsedByEffector: 0
  m_UsedByComposite: 0
  m_Offset: {x: 0, y: 0}
  m_SpriteTilingProperty:
    border: {x: 0, y: 0, z: 0, w: 0}
    pivot: {x: 0.5468646, y: 0.463786}
    oldSize: {x: 25.050001, y: 27.434439}
    newSize: {x: 32.86, y: 28.993176}
    adaptiveTilingThreshold: 0.5
    drawMode: 0
    adaptiveTiling: 0
  m_AutoTiling: 0
  m_Points:
    m_Paths:
    - - {x: -7.6842794, y: -10.191917}
      - {x: -7.724467, y: -10.071356}
      - {x: -7.510135, y: -10.205313}
      - {x: -7.2020335, y: -10.272291}
      - {x: -6.8805366, y: -10.272291}
      - {x: -6.6796007, y: -10.232104}
      - {x: -6.5322475, y: -10.339271}
      - {x: -6.4250817, y: -10.366061}
      - {x: -6.2509375, y: -10.366061}
      - {x: -6.02321, y: -10.191917}
      - {x: -5.9696274, y: -10.031169}
      - {x: -5.983023, y: -9.883816}
      - {x: -5.9964185, y: -9.790046}
      - {x: -6.0901885, y: -9.656089}
      - {x: -5.8088784, y: -9.281008}
      - {x: -5.7686915, y: -9.281008}
      - {x: -5.64813, y: -9.240821}
      - {x: -5.36682, y: -9.106864}
      - {x: -5.112301, y: -8.9461155}
      - {x: -4.884574, y: -8.745179}
      - {x: -4.4693065, y: -8.316516}
      - {x: -4.295162, y: -8.169164}
      - {x: -4.1879964, y: -8.021811}
      - {x: -4.201392, y: -7.9280405}
      - {x: -4.254975, y: -7.8610616}
      - {x: -4.348745, y: -7.847666}
      - {x: -4.4693065, y: -7.9548316}
      - {x: -4.5496807, y: -8.128976}
      - {x: -4.630055, y: -8.222746}
      - {x: -4.737221, y: -8.3433075}
      - {x: -4.964948, y: -8.571035}
      - {x: -5.3132367, y: -8.852345}
      - {x: -5.6079426, y: -9.0398855}
      - {x: -5.36682, y: -8.745179}
      - {x: -5.058718, y: -8.316516}
      - {x: -4.911365, y: -8.008414}
      - {x: -4.8577824, y: -7.807479}
      - {x: -4.830991, y: -7.5931473}
      - {x: -4.817595, y: -7.419003}
      - {x: -4.161205, y: -6.7626123}
      - {x: -4.0138516, y: -6.5616765}
      - {x: -3.9200819, y: -6.6554465}
      - {x: -3.7459373, y: -6.7492166}
      - {x: -3.5851886, y: -6.735821}
      - {x: -3.5450015, y: -6.6688423}
      - {x: -3.5450015, y: -6.6420507}
      - {x: -3.6521673, y: -6.5482807}
      - {x: -4.0138516, y: -6.2803664}
      - {x: -4.054039, y: -6.2669706}
      - {x: -4.4023275, y: -6.7090297}
      - {x: -4.817595, y: -7.164484}
      - {x: -4.830991, y: -7.0439224}
      - {x: -4.884574, y: -6.789404}
      - {x: -4.9917397, y: -6.601864}
      - {x: -5.165884, y: -6.4545107}
      - {x: -5.353424, y: -6.3741364}
      - {x: -5.540964, y: -6.3339496}
      - {x: -5.7552958, y: -6.3339496}
      - {x: -5.46059, y: -5.865099}
      - {x: -5.165884, y: -5.476623}
      - {x: -5.1390924, y: -5.4096446}
      - {x: -5.1926756, y: -5.342666}
      - {x: -5.594547, y: -5.0345645}
      - {x: -5.6615257, y: -5.0345645}
      - {x: -5.7017126, y: -5.181917}
      - {x: -5.634734, y: -5.3158746}
      - {x: -5.4337983, y: -5.4632273}
      - {x: -5.55436, y: -5.637372}
      - {x: -5.7017126, y: -5.851703}
      - {x: -5.8758574, y: -6.119618}
      - {x: -6.0500016, y: -6.414324}
      - {x: -6.1035843, y: -6.4277196}
      - {x: -6.224146, y: -6.4545107}
      - {x: -6.6260176, y: -6.6688423}
      - {x: -6.8135576, y: -6.789404}
      - {x: -7.054681, y: -7.057318}
      - {x: -7.335991, y: -7.405607}
      - {x: -7.228825, y: -7.1376925}
      - {x: -7.0948677, y: -6.883174}
      - {x: -6.7331834, y: -6.320554}
      - {x: -6.6796007, y: -6.320554}
      - {x: -6.559039, y: -6.159805}
      - {x: -6.572435, y: -6.066035}
      - {x: -6.6260176, y: -5.9856606}
      - {x: -6.759975, y: -5.9856606}
      - {x: -6.8805366, y: -6.146409}
      - {x: -6.893932, y: -6.2267838}
      - {x: -7.054681, y: -6.4545107}
      - {x: -7.2690125, y: -6.8027997}
      - {x: -7.4431567, y: -7.17788}
      - {x: -7.5503225, y: -7.445794}
      - {x: -7.577114, y: -7.539564}
      - {x: -7.5905094, y: -7.7538958}
      - {x: -7.858424, y: -8.088789}
      - {x: -7.992381, y: -8.195954}
      - {x: -8.072756, y: -8.169164}
      - {x: -8.193317, y: -8.142372}
      - {x: -8.394253, y: -8.209351}
      - {x: -8.541606, y: -8.370099}
      - {x: -8.555001, y: -8.463869}
      - {x: -8.555001, y: -8.651409}
      - {x: -8.488023, y: -8.798762}
      - {x: -8.367461, y: -8.919324}
      - {x: -8.354066, y: -9.133656}
      - {x: -8.327274, y: -9.281008}
      - {x: -8.273691, y: -9.468549}
      - {x: -8.179921, y: -9.629297}
      - {x: -8.072756, y: -9.763254}
      - {x: -8.032568, y: -9.8704195}
      - {x: -8.233504, y: -9.897211}
      - {x: -8.327274, y: -9.9641905}
      - {x: -8.394253, y: -10.031169}
      - {x: -8.488023, y: -10.232104}
      - {x: -8.4746275, y: -10.392853}
      - {x: -8.421044, y: -10.513414}
      - {x: -8.2469, y: -10.660768}
      - {x: -8.139734, y: -10.674163}
      - {x: -7.952194, y: -10.674163}
      - {x: -7.818237, y: -10.607184}
      - {x: -7.6842794, y: -10.419644}
    - - {x: 1.2238755, y: -7.3386283}
      - {x: 1.5185814, y: -7.2850456}
      - {x: 1.8266829, y: -7.218067}
      - {x: 2.1347847, y: -7.1376925}
      - {x: 2.2419503, y: -7.1109014}
      - {x: 2.3223248, y: -7.08411}
      - {x: 2.6304264, y: -6.976944}
      - {x: 2.737592, y: -6.9367566}
      - {x: 2.9117365, y: -6.869778}
      - {x: 3.0992765, y: -6.789404}
      - {x: 3.2198381, y: -6.735821}
      - {x: 3.6886883, y: -6.508094}
      - {x: 3.8092499, y: -6.441115}
      - {x: 4.144143, y: -6.240179}
      - {x: 4.519223, y: -5.9856606}
      - {x: 4.8675117, y: -5.7177463}
      - {x: 5.0282607, y: -5.583789}
      - {x: 5.1220307, y: -5.490019}
      - {x: 5.3497577, y: -5.275687}
      - {x: 5.5105066, y: -5.1149387}
      - {x: 5.7114425, y: -4.900607}
      - {x: 5.8052125, y: -4.7934413}
      - {x: 5.9391694, y: -4.632693}
      - {x: 6.0999184, y: -4.431757}
      - {x: 6.31425, y: -4.150447}
      - {x: 6.3678327, y: -4.070072}
      - {x: 6.5821643, y: -3.7351792}
      - {x: 6.6759343, y: -3.5744307}
      - {x: 6.7563086, y: -3.4270778}
      - {x: 6.9572444, y: -3.0118103}
      - {x: 7.0108275, y: -2.8912487}
      - {x: 7.091202, y: -2.7037086}
      - {x: 7.184972, y: -2.4625857}
      - {x: 7.2519503, y: -2.3286285}
      - {x: 7.318929, y: -2.0741098}
      - {x: 7.359116, y: -1.9401525}
      - {x: 7.3993034, y: -1.7927996}
      - {x: 7.4796777, y: -1.4713023}
      - {x: 7.519865, y: -1.2837621}
      - {x: 7.560052, y: -1.0560349}
      - {x: 7.5734477, y: -0.96226484}
      - {x: 7.6002393, y: -0.78812045}
      - {x: 7.627031, y: -0.5469974}
      - {x: 7.640426, y: -0.38624877}
      - {x: 7.653822, y: -0.18531294}
      - {x: 7.653822, y: 0.5514518}
      - {x: 7.640426, y: 0.7657833}
      - {x: 7.627031, y: 0.926532}
      - {x: 7.613635, y: 1.0336977}
      - {x: 7.6002393, y: 1.1542592}
      - {x: 7.5734477, y: 1.3417994}
      - {x: 7.560052, y: 1.4221737}
      - {x: 7.519865, y: 1.649901}
      - {x: 7.426095, y: 2.0651684}
      - {x: 7.359116, y: 2.3062913}
      - {x: 7.3055334, y: 2.4938314}
      - {x: 7.225159, y: 2.7215588}
      - {x: 7.1447845, y: 2.9358902}
      - {x: 7.091202, y: 3.0698476}
      - {x: 6.97064, y: 3.3511577}
      - {x: 6.742913, y: 3.820008}
      - {x: 6.6223516, y: 4.0343394}
      - {x: 6.4749985, y: 4.2754626}
      - {x: 6.22048, y: 4.6505427}
      - {x: 6.059731, y: 4.8648744}
      - {x: 5.8989825, y: 5.06581}
      - {x: 5.738234, y: 5.2399545}
      - {x: 5.5506935, y: 5.4408903}
      - {x: 5.309571, y: 5.6820135}
      - {x: 5.1220307, y: 5.856158}
      - {x: 4.854116, y: 6.0972805}
      - {x: 4.6129932, y: 6.284821}
      - {x: 4.425453, y: 6.418778}
      - {x: 4.345079, y: 6.472361}
      - {x: 4.09056, y: 6.6331096}
      - {x: 3.99679, y: 6.700088}
      - {x: 3.8360412, y: 6.793858}
      - {x: 3.7154799, y: 6.860837}
      - {x: 3.1930466, y: 7.1153555}
      - {x: 3.0724852, y: 7.1689386}
      - {x: 2.9117365, y: 7.235917}
      - {x: 2.7108006, y: 7.3162913}
      - {x: 2.6706135, y: 7.329687}
      - {x: 2.5232606, y: 7.38327}
      - {x: 2.442886, y: 7.4100614}
      - {x: 2.0410144, y: 7.530623}
      - {x: 1.5989558, y: 7.637789}
      - {x: 1.3042498, y: 7.6913714}
      - {x: 1.1435012, y: 7.718163}
      - {x: 0.82200384, y: 7.7583504}
      - {x: 0.6612552, y: 7.771746}
      - {x: 0.47371504, y: 7.7851415}
      - {x: -0.38361117, y: 7.7851415}
      - {x: -0.39700687, y: 7.771746}
      - {x: -0.7185042, y: 7.7583504}
      - {x: -0.93283576, y: 7.731559}
      - {x: -1.1337715, y: 7.704767}
      - {x: -1.4284775, y: 7.6511846}
      - {x: -1.6829962, y: 7.5976014}
      - {x: -1.8437449, y: 7.5574145}
      - {x: -2.3125951, y: 7.423457}
      - {x: -2.607301, y: 7.3162913}
      - {x: -2.8752155, y: 7.2091255}
      - {x: -3.0627556, y: 7.1287513}
      - {x: -3.2368999, y: 7.048377}
      - {x: -3.4378357, y: 6.954607}
      - {x: -3.478023, y: 6.9278154}
      - {x: -3.6387715, y: 6.847441}
      - {x: -3.8263118, y: 6.7402754}
      - {x: -4.067435, y: 6.592922}
      - {x: -4.4023275, y: 6.3651953}
      - {x: -4.5094934, y: 6.284821}
      - {x: -4.7506166, y: 6.0972805}
      - {x: -4.911365, y: 5.9633236}
      - {x: -5.152488, y: 5.735596}
      - {x: -5.4873815, y: 5.400703}
      - {x: -5.634734, y: 5.2399545}
      - {x: -5.728504, y: 5.1327887}
      - {x: -5.8624616, y: 4.97204}
      - {x: -5.916044, y: 4.9050612}
      - {x: -6.0500016, y: 4.744313}
      - {x: -6.277729, y: 4.4228153}
      - {x: -6.39829, y: 4.2218795}
      - {x: -6.465269, y: 4.1281095}
      - {x: -6.559039, y: 3.967361}
      - {x: -6.6260176, y: 3.8467994}
      - {x: -6.7331834, y: 3.6458635}
      - {x: -6.7733707, y: 3.5520935}
      - {x: -6.893932, y: 3.2975748}
      - {x: -6.934119, y: 3.2038047}
      - {x: -7.0010977, y: 3.043056}
      - {x: -7.1082635, y: 2.761746}
      - {x: -7.135055, y: 2.6813717}
      - {x: -7.3091993, y: 2.1723342}
      - {x: -7.322595, y: 2.0651684}
      - {x: -7.3761783, y: 1.8508368}
      - {x: -7.4029694, y: 1.7168796}
      - {x: -7.4565525, y: 1.4355694}
      - {x: -7.4833436, y: 1.261425}
      - {x: -7.4967394, y: 1.167655}
      - {x: -7.523531, y: 0.9399277}
      - {x: -7.5369267, y: 0.79257476}
      - {x: -7.5503225, y: 0.56484747}
      - {x: -7.5503225, y: -0.19870865}
      - {x: -7.5369267, y: -0.42643595}
      - {x: -7.523531, y: -0.5737889}
      - {x: -7.4967394, y: -0.8015162}
      - {x: -7.4431567, y: -1.1364092}
      - {x: -7.416365, y: -1.2971579}
      - {x: -7.4029694, y: -1.3507408}
      - {x: -7.3627825, y: -1.5516766}
      - {x: -7.335991, y: -1.6588423}
      - {x: -7.2958035, y: -1.8061953}
      - {x: -7.2690125, y: -1.8999654}
      - {x: -7.2154293, y: -2.0741098}
      - {x: -7.1752424, y: -2.208067}
      - {x: -7.1082635, y: -2.4090028}
      - {x: -7.0278893, y: -2.6099386}
      - {x: -6.987702, y: -2.7037086}
      - {x: -6.9207234, y: -2.8644574}
      - {x: -6.867141, y: -2.9850187}
      - {x: -6.559039, y: -3.601222}
      - {x: -6.384895, y: -3.9093237}
      - {x: -6.1571674, y: -4.230821}
      - {x: -6.0500016, y: -4.378174}
      - {x: -5.7954826, y: -4.6862755}
      - {x: -5.634734, y: -4.8738155}
      - {x: -5.2194667, y: -5.302479}
      - {x: -5.018531, y: -5.490019}
      - {x: -4.911365, y: -5.583789}
      - {x: -4.7506166, y: -5.7177463}
      - {x: -4.5764723, y: -5.865099}
      - {x: -4.4157233, y: -5.9856606}
      - {x: -4.2817664, y: -6.0794306}
      - {x: -4.201392, y: -6.1330137}
      - {x: -3.9334774, y: -6.307158}
      - {x: -3.7995203, y: -6.387532}
      - {x: -3.5851886, y: -6.508094}
      - {x: -3.089547, y: -6.7492166}
      - {x: -2.9020069, y: -6.8295913}
      - {x: -2.7412581, y: -6.8965697}
      - {x: -2.6340926, y: -6.9367566}
      - {x: -2.3795738, y: -7.030527}
      - {x: -2.031285, y: -7.1376925}
      - {x: -1.883932, y: -7.17788}
      - {x: -1.7767663, y: -7.2046714}
      - {x: -1.4820603, y: -7.27165}
      - {x: -1.2811246, y: -7.311837}
      - {x: -1.1203759, y: -7.3386283}
      - {x: -0.82567, y: -7.3788157}
      - {x: -0.69171274, y: -7.3922114}
      - {x: -0.5443598, y: -7.405607}
      - {x: -0.35681972, y: -7.419003}
      - {x: 0.46031934, y: -7.419003}
      - {x: 0.64785945, y: -7.405607}
      - {x: 0.9291696, y: -7.3788157}
      - {x: 1.1301054, y: -7.352024}
    - - {x: 8.0021105, y: 9.526586}
      - {x: 7.988715, y: 9.593564}
      - {x: 8.44417, y: 9.459607}
      - {x: 8.832645, y: 9.352441}
      - {x: 9.261309, y: 9.2452755}
      - {x: 9.703367, y: 9.151505}
      - {x: 10.011469, y: 9.097922}
      - {x: 10.185614, y: 9.071131}
      - {x: 10.614277, y: 9.017549}
      - {x: 11.04294, y: 9.044339}
      - {x: 11.190292, y: 9.111319}
      - {x: 11.257271, y: 9.178297}
      - {x: 11.351042, y: 9.419419}
      - {x: 11.351042, y: 9.6605425}
      - {x: 11.284062, y: 9.781104}
      - {x: 11.002752, y: 10.022227}
      - {x: 10.748234, y: 10.196372}
      - {x: 10.359758, y: 10.424099}
      - {x: 10.185614, y: 10.517869}
      - {x: 9.770346, y: 10.718804}
      - {x: 9.596202, y: 10.799179}
      - {x: 9.47564, y: 10.852762}
      - {x: 9.10056, y: 11.026906}
      - {x: 8.779062, y: 11.160864}
      - {x: 8.939812, y: 11.616318}
      - {x: 9.020185, y: 11.870837}
      - {x: 9.060373, y: 11.911024}
      - {x: 9.140747, y: 12.192334}
      - {x: 9.127352, y: 12.460249}
      - {x: 9.207726, y: 12.513831}
      - {x: 9.328287, y: 12.446853}
      - {x: 9.47564, y: 12.460249}
      - {x: 9.609597, y: 12.513831}
      - {x: 9.689972, y: 12.594206}
      - {x: 9.75695, y: 12.754954}
      - {x: 9.743555, y: 12.888912}
      - {x: 9.689972, y: 12.982682}
      - {x: 9.56941, y: 13.103243}
      - {x: 9.328287, y: 13.130034}
      - {x: 9.234517, y: 13.076452}
      - {x: 9.140747, y: 12.996078}
      - {x: 9.073769, y: 12.875516}
      - {x: 9.060373, y: 12.687976}
      - {x: 8.979999, y: 12.821933}
      - {x: 8.792459, y: 12.996078}
      - {x: 8.63171, y: 13.103243}
      - {x: 8.511148, y: 13.143431}
      - {x: 8.16286, y: 13.156826}
      - {x: 7.988715, y: 13.089848}
      - {x: 7.908341, y: 13.049661}
      - {x: 7.988715, y: 13.156826}
      - {x: 8.055694, y: 13.304179}
      - {x: 8.055694, y: 13.451532}
      - {x: 8.015507, y: 13.572094}
      - {x: 7.841362, y: 13.706051}
      - {x: 7.613635, y: 13.706051}
      - {x: 7.5332603, y: 13.652468}
      - {x: 7.412699, y: 13.531906}
      - {x: 7.3859076, y: 13.304179}
      - {x: 7.4394903, y: 13.197013}
      - {x: 7.5064692, y: 13.116639}
      - {x: 7.7743835, y: 12.955891}
      - {x: 7.627031, y: 12.8085375}
      - {x: 7.5332603, y: 12.620997}
      - {x: 7.3323245, y: 12.044981}
      - {x: 7.2519503, y: 11.817254}
      - {x: 7.2117634, y: 11.683297}
      - {x: 7.077806, y: 11.723484}
      - {x: 6.890266, y: 11.777067}
      - {x: 6.68933, y: 11.830649}
      - {x: 6.260667, y: 11.937816}
      - {x: 5.8855867, y: 12.018189}
      - {x: 5.671255, y: 12.058377}
      - {x: 5.4167366, y: 12.098564}
      - {x: 5.0416565, y: 12.138751}
      - {x: 4.639785, y: 12.138751}
      - {x: 4.425453, y: 12.111959}
      - {x: 4.2781, y: 12.004794}
      - {x: 4.170934, y: 11.669901}
      - {x: 4.170934, y: 11.535944}
      - {x: 4.237913, y: 11.442174}
      - {x: 4.46564, y: 11.227842}
      - {x: 4.626389, y: 11.093885}
      - {x: 4.7871375, y: 10.986719}
      - {x: 5.055052, y: 10.825971}
      - {x: 5.296175, y: 10.692014}
      - {x: 5.9391694, y: 10.383912}
      - {x: 6.2740626, y: 10.236559}
      - {x: 6.9572444, y: 9.955249}
      - {x: 6.8098917, y: 9.807896}
      - {x: 6.6625385, y: 9.60696}
      - {x: 6.5285816, y: 9.620356}
      - {x: 6.394624, y: 9.51319}
      - {x: 6.3678327, y: 9.365837}
      - {x: 6.40802, y: 9.285462}
      - {x: 6.515186, y: 9.178297}
      - {x: 6.742913, y: 9.205089}
      - {x: 6.8232875, y: 9.339046}
      - {x: 6.8098917, y: 9.446211}
      - {x: 6.890266, y: 9.566772}
      - {x: 7.15818, y: 9.861479}
      - {x: 7.372512, y: 9.821291}
      - {x: 7.2519503, y: 9.406024}
      - {x: 7.15818, y: 9.339046}
      - {x: 7.0510144, y: 9.258671}
      - {x: 7.0108275, y: 9.084527}
      - {x: 7.1045976, y: 8.950569}
      - {x: 7.2117634, y: 8.896987}
      - {x: 7.3859076, y: 8.950569}
      - {x: 7.4394903, y: 9.030944}
      - {x: 7.466282, y: 9.097922}
      - {x: 7.466282, y: 9.178297}
      - {x: 7.426095, y: 9.285462}
      - {x: 7.5868435, y: 9.727521}
      - {x: 7.7877793, y: 9.647147}
      - {x: 7.814571, y: 9.111319}
      - {x: 7.747592, y: 9.057735}
      - {x: 7.707405, y: 8.990757}
      - {x: 7.734196, y: 8.816612}
      - {x: 7.841362, y: 8.736238}
      - {x: 7.854758, y: 8.722842}
      - {x: 8.042298, y: 8.722842}
      - {x: 8.16286, y: 8.883591}
      - {x: 8.16286, y: 9.030944}
      - {x: 8.028902, y: 9.138109}
    - - {x: 10.386549, y: 12.339687}
      - {x: 10.386549, y: 12.607601}
      - {x: 10.332967, y: 12.661184}
      - {x: 10.279384, y: 12.661184}
      - {x: 10.2258005, y: 12.620997}
      - {x: 10.199009, y: 12.339687}
      - {x: 10.1320305, y: 12.004794}
      - {x: 10.078447, y: 11.803858}
      - {x: 9.94449, y: 11.415382}
      - {x: 9.94449, y: 11.361799}
      - {x: 9.998074, y: 11.308216}
      - {x: 10.078447, y: 11.308216}
      - {x: 10.145427, y: 11.401987}
      - {x: 10.252592, y: 11.750276}
      - {x: 10.373154, y: 12.192334}
    - - {x: 7.3457203, y: 13.799821}
      - {x: 7.5868435, y: 14.040944}
      - {x: 7.908341, y: 14.228484}
      - {x: 8.149464, y: 14.268671}
      - {x: 8.203047, y: 14.349046}
      - {x: 8.203047, y: 14.416024}
      - {x: 8.16286, y: 14.456211}
      - {x: 8.122672, y: 14.469607}
      - {x: 8.028902, y: 14.469607}
      - {x: 7.894945, y: 14.4294195}
      - {x: 7.6940093, y: 14.349046}
      - {x: 7.4930735, y: 14.215088}
      - {x: 7.1983676, y: 13.947174}
      - {x: 6.9438486, y: 13.585489}
      - {x: 6.6625385, y: 12.982682}
      - {x: 6.6625385, y: 12.835329}
      - {x: 6.6759343, y: 12.781746}
      - {x: 6.796496, y: 12.781746}
      - {x: 6.836683, y: 12.821933}
      - {x: 6.984036, y: 13.170222}
      - {x: 7.1179934, y: 13.451532}
